2 Data Manipulation | Intermediate R
…
## See spec(...) for full column specifications.

## Warning: 45441 parsing failures.
##   row  col           expected actual                       file
## 25015 GIDP 1/0/T/F/TRUE/FALSE     2  'data_sources/Batting.csv'
## 25016 GIDP 1/0/T/F/TRUE/FALSE     10 'data_sources/Batting.csv'
## 25018 GIDP 1/0/T/F/TRUE/FALSE     4  'data_sources/Batting.csv'
## 25028 GIDP 1/0/T/F/TRUE/FALSE     8  'data_sources/Batting.csv'
## 25030 GIDP 1/0/T/F/TRUE/FALSE     3  'data_sources/Batting.csv'
## ..... .... .................. ...... ..........................
## See problems(...) for more details.

## # A tibble: 102,816 x 22
##    playerID  yearID stint teamID lgID      G    AB     R     H  `2B`  `3B`    HR   RBI    SB    CS    BB    SO   IBB   HBP    SH SF    GIDP 
##    <chr>      <dbl> <dbl> <chr>  <chr> <dbl> <dbl> <dbl> <dbl> <dbl> <dbl> <dbl> <dbl> <dbl> <dbl> <dbl> <dbl> <dbl> <dbl> <dbl> <lgl> <lgl>
##  1 abercda01   1871     1 TRO    <NA>      1     4     0     0     0     0     0     0     0     0     0     0    NA    NA    NA NA    NA   
##  2 addybo01    1871     1 RC1    <NA>     25   118    30    32     6     0     0    13     8     1     4     0    NA    NA    NA NA    NA   
##  3 allisar01   1871     1 CL1    <NA>     29   137    28    40     4     5     0    19     3     1     2     5    NA    NA    NA NA    NA   
##  4 allisdo01   1871     1 WS3    <NA>     27   133    28    44    10     2     2    27     1     1     0     2    NA    NA    NA NA    NA   
##  5 ansonca01   1871     1 RC1    <NA>     25   120    29    39    11     3     0    16     6     2     2     1    NA    NA    NA NA    NA   
##  6 armstbo01   1871     1 FW1    <NA>     12    49     9    11     2     1     0     5     0     1     0     1    NA    NA    NA NA    NA   
##  7 barkeal01   1871     1 RC1    <NA>      1     4     0     1     0     0     0     2     0     0     1     0    NA    NA    NA NA    NA   
##  8 barnero01   1871     1 BS1    <NA>     31   157    66    63    10     9     0    34    11     6    13     1    NA    NA    NA NA    NA   
##  9 barrebi01   1871     1 FW1    <NA>      1     5     1     1     1     0     0     1     0     0     0     0    NA    NA    NA NA    NA   
## 10 barrofr01   1871     1 BS1    <NA>     18    86    13    13     2     1     0    11     1     0     0     0    NA    NA    NA NA    NA   
## # ... with 102,806 more rows

Fix Read In Errors

<<<<<<< HEAD

read_csv("data_files/Batting.csv", col_types = cols(SF = col_double(), GIDP = col_double()))

## # A tibble: 102,816 x 22
##    playerID  yearID stint teamID lgID      G    AB     R     H  `2B`  `3B`    HR   RBI    SB    CS    BB    SO   IBB   HBP    SH    SF  GIDP
##    <chr>      <dbl> <dbl> <chr>  <chr> <dbl> <dbl> <dbl> <dbl> <dbl> <dbl> <dbl> <dbl> <dbl> <dbl> <dbl> <dbl> <dbl> <dbl> <dbl> <dbl> <dbl>
##  1 abercda01   1871     1 TRO    <NA>      1     4     0     0     0     0     0     0     0     0     0     0    NA    NA    NA    NA    NA
##  2 addybo01    1871     1 RC1    <NA>     25   118    30    32     6     0     0    13     8     1     4     0    NA    NA    NA    NA    NA
##  3 allisar01   1871     1 CL1    <NA>     29   137    28    40     4     5     0    19     3     1     2     5    NA    NA    NA    NA    NA
##  4 allisdo01   1871     1 WS3    <NA>     27   133    28    44    10     2     2    27     1     1     0     2    NA    NA    NA    NA    NA
##  5 ansonca01   1871     1 RC1    <NA>     25   120    29    39    11     3     0    16     6     2     2     1    NA    NA    NA    NA    NA
##  6 armstbo01   1871     1 FW1    <NA>     12    49     9    11     2     1     0     5     0     1     0     1    NA    NA    NA    NA    NA
##  7 barkeal01   1871     1 RC1    <NA>      1     4     0     1     0     0     0     2     0     0     1     0    NA    NA    NA    NA    NA
##  8 barnero01   1871     1 BS1    <NA>     31   157    66    63    10     9     0    34    11     6    13     1    NA    NA    NA    NA    NA
##  9 barrebi01   1871     1 FW1    <NA>      1     5     1     1     1     0     0     1     0     0     0     0    NA    NA    NA    NA    NA
## 10 barrofr01   1871     1 BS1    <NA>     18    86    13    13     2     1     0    11     1     0     0     0    NA    NA    NA    NA    NA
## # ... with 102,806 more rows

read_csv("data_files/Batting.csv", guess_max = 10000)

=======

read_csv("data_sources/Batting.csv", col_types = cols(SF = col_double(), GIDP = col_double()))

## # A tibble: 102,816 x 22
##    playerID yearID stint teamID lgID      G    AB     R     H  `2B`  `3B`    HR
##    <chr>     <dbl> <dbl> <chr>  <chr> <dbl> <dbl> <dbl> <dbl> <dbl> <dbl> <dbl>
##  1 abercda~   1871     1 TRO    <NA>      1     4     0     0     0     0     0
##  2 addybo01   1871     1 RC1    <NA>     25   118    30    32     6     0     0
##  3 allisar~   1871     1 CL1    <NA>     29   137    28    40     4     5     0
##  4 allisdo~   1871     1 WS3    <NA>     27   133    28    44    10     2     2
##  5 ansonca~   1871     1 RC1    <NA>     25   120    29    39    11     3     0
##  6 armstbo~   1871     1 FW1    <NA>     12    49     9    11     2     1     0
##  7 barkeal~   1871     1 RC1    <NA>      1     4     0     1     0     0     0
##  8 barnero~   1871     1 BS1    <NA>     31   157    66    63    10     9     0
##  9 barrebi~   1871     1 FW1    <NA>      1     5     1     1     1     0     0
## 10 barrofr~   1871     1 BS1    <NA>     18    86    13    13     2     1     0
## # ... with 102,806 more rows, and 10 more variables: RBI <dbl>, SB <dbl>,
## #   CS <dbl>, BB <dbl>, SO <dbl>, IBB <dbl>, HBP <dbl>, SH <dbl>, SF <dbl>,
## #   GIDP <dbl>
read_csv("data_sources/Batting.csv", guess_max = 10000)

>>>>>>> 7f0001a581d2099a496c30844c88b7e993e3ab43

## Parsed with column specification:
## cols(
##   .default = col_double(),
##   playerID = col_character(),
##   teamID = col_character(),
##   lgID = col_character()
## )

## See spec(...) for full column specifications.

## # A tibble: 102,816 x 22
##    playerID  yearID stint teamID lgID      G    AB     R     H  `2B`  `3B`    HR   RBI    SB    CS    BB    SO   IBB   HBP    SH    SF  GIDP
##    <chr>      <dbl> <dbl> <chr>  <chr> <dbl> <dbl> <dbl> <dbl> <dbl> <dbl> <dbl> <dbl> <dbl> <dbl> <dbl> <dbl> <dbl> <dbl> <dbl> <dbl> <dbl>
##  1 abercda01   1871     1 TRO    <NA>      1     4     0     0     0     0     0     0     0     0     0     0    NA    NA    NA    NA    NA
##  2 addybo01    1871     1 RC1    <NA>     25   118    30    32     6     0     0    13     8     1     4     0    NA    NA    NA    NA    NA
##  3 allisar01   1871     1 CL1    <NA>     29   137    28    40     4     5     0    19     3     1     2     5    NA    NA    NA    NA    NA
##  4 allisdo01   1871     1 WS3    <NA>     27   133    28    44    10     2     2    27     1     1     0     2    NA    NA    NA    NA    NA
##  5 ansonca01   1871     1 RC1    <NA>     25   120    29    39    11     3     0    16     6     2     2     1    NA    NA    NA    NA    NA
##  6 armstbo01   1871     1 FW1    <NA>     12    49     9    11     2     1     0     5     0     1     0     1    NA    NA    NA    NA    NA
##  7 barkeal01   1871     1 RC1    <NA>      1     4     0     1     0     0     0     2     0     0     1     0    NA    NA    NA    NA    NA
##  8 barnero01   1871     1 BS1    <NA>     31   157    66    63    10     9     0    34    11     6    13     1    NA    NA    NA    NA    NA
##  9 barrebi01   1871     1 FW1    <NA>      1     5     1     1     1     0     0     1     0     0     0     0    NA    NA    NA    NA    NA
## 10 barrofr01   1871     1 BS1    <NA>     18    86    13    13     2     1     0    11     1     0     0     0    NA    NA    NA    NA    NA
## # ... with 102,806 more rows

Clean Column Names

<<<<<<< HEAD

read_csv("data_files/Batting.csv", col_types = cols(SF = col_double(), GIDP = col_double())) %>% 
=======

read_csv("data_sources/Batting.csv", col_types = cols(SF = col_double(), GIDP = col_double())) %>% 
>>>>>>> 7f0001a581d2099a496c30844c88b7e993e3ab43
  clean_names()

## # A tibble: 102,816 x 22
##    player_id year_id stint team_id lg_id     g    ab     r     h   x2b   x3b    hr   rbi    sb    cs    bb    so   ibb   hbp    sh    sf  gidp
##    <chr>       <dbl> <dbl> <chr>   <chr> <dbl> <dbl> <dbl> <dbl> <dbl> <dbl> <dbl> <dbl> <dbl> <dbl> <dbl> <dbl> <dbl> <dbl> <dbl> <dbl> <dbl>
##  1 abercda01    1871     1 TRO     <NA>      1     4     0     0     0     0     0     0     0     0     0     0    NA    NA    NA    NA    NA
##  2 addybo01     1871     1 RC1     <NA>     25   118    30    32     6     0     0    13     8     1     4     0    NA    NA    NA    NA    NA
##  3 allisar01    1871     1 CL1     <NA>     29   137    28    40     4     5     0    19     3     1     2     5    NA    NA    NA    NA    NA
##  4 allisdo01    1871     1 WS3     <NA>     27   133    28    44    10     2     2    27     1     1     0     2    NA    NA    NA    NA    NA
##  5 ansonca01    1871     1 RC1     <NA>     25   120    29    39    11     3     0    16     6     2     2     1    NA    NA    NA    NA    NA
##  6 armstbo01    1871     1 FW1     <NA>     12    49     9    11     2     1     0     5     0     1     0     1    NA    NA    NA    NA    NA
##  7 barkeal01    1871     1 RC1     <NA>      1     4     0     1     0     0     0     2     0     0     1     0    NA    NA    NA    NA    NA
##  8 barnero01    1871     1 BS1     <NA>     31   157    66    63    10     9     0    34    11     6    13     1    NA    NA    NA    NA    NA
##  9 barrebi01    1871     1 FW1     <NA>      1     5     1     1     1     0     0     1     0     0     0     0    NA    NA    NA    NA    NA
## 10 barrofr01    1871     1 BS1     <NA>     18    86    13    13     2     1     0    11     1     0     0     0    NA    NA    NA    NA    NA
## # ... with 102,806 more rows
…
Select

<<<<<<< HEAD

data = read_csv("data_files/Batting.csv", col_types = cols(SF = col_double(), GIDP = col_double())) %>% 
=======

data = read_csv("data_sources/Batting.csv", col_types = cols(SF = col_double(), GIDP = col_double())) %>% 
>>>>>>> 7f0001a581d2099a496c30844c88b7e993e3ab43
  clean_names()

data %>% 
  select(player_id,year_id,h,x2b,x3b,hr,ab, g)

## # A tibble: 102,816 x 8
##    player_id year_id     h   x2b   x3b    hr    ab     g
##    <chr>       <dbl> <dbl> <dbl> <dbl> <dbl> <dbl> <dbl>
##  1 abercda01    1871     0     0     0     0     4     1
##  2 addybo01     1871    32     6     0     0   118    25
##  3 allisar01    1871    40     4     5     0   137    29
##  4 allisdo01    1871    44    10     2     2   133    27
##  5 ansonca01    1871    39    11     3     0   120    25
##  6 armstbo01    1871    11     2     1     0    49    12
##  7 barkeal01    1871     1     0     0     0     4     1
##  8 barnero01    1871    63    10     9     0   157    31
##  9 barrebi01    1871     1     1     0     0     5     1
## 10 barrofr01    1871    13     2     1     0    86    18
## # ... with 102,806 more rows

Group_by

data %>% 
  select(player_id,year_id,h,x2b,x3b,hr,ab, g) %>% 
  group_by(player_id)

## # A tibble: 102,816 x 8
## # Groups:   player_id [18,915]
##    player_id year_id     h   x2b   x3b    hr    ab     g
##    <chr>       <dbl> <dbl> <dbl> <dbl> <dbl> <dbl> <dbl>
##  1 abercda01    1871     0     0     0     0     4     1
##  2 addybo01     1871    32     6     0     0   118    25
##  3 allisar01    1871    40     4     5     0   137    29
##  4 allisdo01    1871    44    10     2     2   133    27
##  5 ansonca01    1871    39    11     3     0   120    25
##  6 armstbo01    1871    11     2     1     0    49    12
##  7 barkeal01    1871     1     0     0     0     4     1
##  8 barnero01    1871    63    10     9     0   157    31
##  9 barrebi01    1871     1     1     0     0     5     1
## 10 barrofr01    1871    13     2     1     0    86    18
## # ... with 102,806 more rows
…
=======
            g = sum(g))

## `summarise()` ungrouping output (override with `.groups` argument)

>>>>>>> 7f0001a581d2099a496c30844c88b7e993e3ab43

## # A tibble: 18,915 x 7
##    player_id     h   x2b   x3b    hr    ab     g
##    <chr>     <dbl> <dbl> <dbl> <dbl> <dbl> <dbl>
##  1 aardsda01     0     0     0     0     4   331
##  2 aaronha01  3771   624    98   755 12364  3298
##  3 aaronto01   216    42     6    13   944   437
##  4 aasedo01      0     0     0     0     5   448
##  5 abadan01      2     0     0     0    21    15
##  6 abadfe01      1     0     0     0     9   315
##  7 abadijo01    11     0     0     0    49    12
##  8 abbated01   772    99    43    11  3044   855
##  9 abbeybe01    38     3     3     0   225    79
## 10 abbeych01   492    67    46    19  1751   451
## # ... with 18,905 more rows
…
data %>% 
  select(player_id,year_id,h,x2b,x3b,hr,ab, g) %>% 
  group_by(player_id) %>% 
  summarise(h = sum(h), 
            x2b = sum(x2b),
            x3b = sum(x3b),
            hr = sum(hr),
            ab = sum(ab),
            g = sum(g)) %>% 
  filter(g>1000) 

>>>>>>> 7f0001a581d2099a496c30844c88b7e993e3ab43

## # A tibble: 1,564 x 7
##    player_id     h   x2b   x3b    hr    ab     g
##    <chr>     <dbl> <dbl> <dbl> <dbl> <dbl> <dbl>
##  1 aaronha01  3771   624    98   755 12364  3298
##  2 abreubo01  2470   574    59   288  8480  2425
##  3 adairje01  1022   163    19    57  4019  1165
##  4 adamsbo03  1082   188    49    37  4019  1281
##  5 adamssp01  1588   249    48     9  5557  1424
##  6 adcocjo01  1832   295    35   336  6606  1959
##  7 ageeto01    999   170    27   130  3912  1129
##  8 ainsmed01   707   108    54    22  3048  1078
##  9 alfoned01  1532   282    18   146  5385  1506
## 10 alicelu01  1031   189    53    47  3971  1341
## # ... with 1,554 more rows
…
data %>% 
  select(player_id,year_id,h,x2b,x3b,hr,ab, g) %>% 
  group_by(player_id) %>% 
  summarise(h = sum(h), 
            x2b = sum(x2b),
            x3b = sum(x3b),
            hr = sum(hr),
            ab = sum(ab),
            g = sum(g)) %>% 
  filter(g>1000) %>% 
  mutate(slg = (h + x2b + 2*x3b + 3*hr)/ab)

>>>>>>> 7f0001a581d2099a496c30844c88b7e993e3ab43

## # A tibble: 1,564 x 8
##    player_id     h   x2b   x3b    hr    ab     g   slg
##    <chr>     <dbl> <dbl> <dbl> <dbl> <dbl> <dbl> <dbl>
##  1 aaronha01  3771   624    98   755 12364  3298 0.555
##  2 abreubo01  2470   574    59   288  8480  2425 0.475
##  3 adairje01  1022   163    19    57  4019  1165 0.347
##  4 adamsbo03  1082   188    49    37  4019  1281 0.368
##  5 adamssp01  1588   249    48     9  5557  1424 0.353
##  6 adcocjo01  1832   295    35   336  6606  1959 0.485
##  7 ageeto01    999   170    27   130  3912  1129 0.412
##  8 ainsmed01   707   108    54    22  3048  1078 0.324
##  9 alfoned01  1532   282    18   146  5385  1506 0.425
## 10 alicelu01  1031   189    53    47  3971  1341 0.369
## # ... with 1,554 more rows
…
slgdata

>>>>>>> 7f0001a581d2099a496c30844c88b7e993e3ab43

## # A tibble: 1,564 x 8
##    player_id     h   x2b   x3b    hr    ab     g   slg
##    <chr>     <dbl> <dbl> <dbl> <dbl> <dbl> <dbl> <dbl>
##  1 ruthba01   2873   506   136   714  8398  2503 0.690
##  2 willite01  2654   525    71   521  7706  2292 0.634
##  3 gehrilo01  2721   534   163   493  8001  2164 0.632
##  4 foxxji01   2646   458   125   534  8134  2317 0.609
##  5 bondsba01  2935   601    77   762  9847  2986 0.607
##  6 greenha01  1628   379    71   331  5193  1394 0.605
##  7 mcgwima01  1626   252     6   583  6187  1874 0.588
##  8 ramirma02  2574   547    20   555  8244  2302 0.585
##  9 dimagjo01  2214   389   131   361  6821  1736 0.579
## 10 hornsro01  2930   541   169   301  8173  2259 0.577
## # ... with 1,554 more rows
…
## See spec(...) for full column specifications.

## # A tibble: 19,105 x 24
<<<<<<< HEAD
##    playerID birthYear birthMonth birthDay birthCountry birthState birthCity deathYear deathMonth deathDay deathCountry deathState deathCity nameFirst nameLast nameGiven weight
##    <chr>        <dbl>      <dbl>    <dbl> <chr>        <chr>      <chr>         <dbl>      <dbl>    <dbl> <chr>        <chr>      <chr>     <chr>     <chr>    <chr>      <dbl>
##  1 aardsda~      1981         12       27 USA          CO         Denver           NA         NA       NA <NA>         <NA>       <NA>      David     Aardsma  David Al~    215
##  2 aaronha~      1934          2        5 USA          AL         Mobile           NA         NA       NA <NA>         <NA>       <NA>      Hank      Aaron    Henry Lo~    180
##  3 aaronto~      1939          8        5 USA          AL         Mobile         1984          8       16 USA          GA         Atlanta   Tommie    Aaron    Tommie L~    190
##  4 aasedo01      1954          9        8 USA          CA         Orange           NA         NA       NA <NA>         <NA>       <NA>      Don       Aase     Donald W~    190
##  5 abadan01      1972          8       25 USA          FL         Palm Bea~        NA         NA       NA <NA>         <NA>       <NA>      Andy      Abad     Fausto A~    184
##  6 abadfe01      1985         12       17 D.R.         La Romana  La Romana        NA         NA       NA <NA>         <NA>       <NA>      Fernando  Abad     Fernando~    220
##  7 abadijo~      1850         11        4 USA          PA         Philadel~      1905          5       17 USA          NJ         Pemberton John      Abadie   John W.      192
##  8 abbated~      1877          4       15 USA          PA         Latrobe        1957          1        6 USA          FL         Fort Lau~ Ed        Abbatic~ Edward J~    170
##  9 abbeybe~      1869         11       11 USA          VT         Essex          1962          6       11 USA          VT         Colchest~ Bert      Abbey    Bert Wood    175
## 10 abbeych~      1866         10       14 USA          NE         Falls Ci~      1926          4       27 USA          CA         San Fran~ Charlie   Abbey    Charles ~    169
## # ... with 19,095 more rows, and 7 more variables: height <dbl>, bats <chr>, throws <chr>, debut <date>, finalGame <date>, retroID <chr>, bbrefID <chr>
…
## See spec(...) for full column specifications.

## # A tibble: 19,105 x 2
##    playerID  player        
##    <chr>     <chr>         
##  1 aardsda01 David Aardsma 
##  2 aaronha01 Hank Aaron    
##  3 aaronto01 Tommie Aaron  
##  4 aasedo01  Don Aase      
##  5 abadan01  Andy Abad     
##  6 abadfe01  Fernando Abad 
##  7 abadijo01 John Abadie   
##  8 abbated01 Ed Abbaticchio
##  9 abbeybe01 Bert Abbey    
## 10 abbeych01 Charlie Abbey 
## # ... with 19,095 more rows
…
Join the Data

<<<<<<< HEAD

slgdata %>% 
  left_join(master, by = c("player_id" = "playerID"))

=======

slgdata %>% 
  left_join(master, by = c("player_id" = "playerID"))

>>>>>>> 7f0001a581d2099a496c30844c88b7e993e3ab43

## # A tibble: 1,564 x 9
##    player_id     h   x2b   x3b    hr    ab     g   slg player        
##    <chr>     <dbl> <dbl> <dbl> <dbl> <dbl> <dbl> <dbl> <chr>         
##  1 ruthba01   2873   506   136   714  8398  2503 0.690 Babe Ruth     
##  2 willite01  2654   525    71   521  7706  2292 0.634 Ted Williams  
##  3 gehrilo01  2721   534   163   493  8001  2164 0.632 Lou Gehrig    
##  4 foxxji01   2646   458   125   534  8134  2317 0.609 Jimmie Foxx   
##  5 bondsba01  2935   601    77   762  9847  2986 0.607 Barry Bonds   
##  6 greenha01  1628   379    71   331  5193  1394 0.605 Hank Greenberg
##  7 mcgwima01  1626   252     6   583  6187  1874 0.588 Mark McGwire  
##  8 ramirma02  2574   547    20   555  8244  2302 0.585 Manny Ramirez 
##  9 dimagjo01  2214   389   131   361  6821  1736 0.579 Joe DiMaggio  
## 10 hornsro01  2930   541   169   301  8173  2259 0.577 Rogers Hornsby
## # ... with 1,554 more rows
…
