4 Functional Programming | Intermediate R
…
4.2 An Interesting Question

Who played the most games and hit the most Home Runs in the 90s in Texas?

hitters %>% 
  filter(yearID %in% 1990:1999) %>% 
  filter(teamID %in% c("HOU","TEX")) %>% 
  select(playerID,teamID, G,HR) %>% 
  group_by(playerID, teamID) %>% 
  summarise_all(.funs = sum) %>% 
  arrange(desc(G,HR))

## # A tibble: 411 x 4
## # Groups:   playerID [398]
##    playerID  teamID     G    HR
##    <chr>     <chr>  <dbl> <dbl>
##  1 biggicr01 HOU     1515   136
##  2 bagweje01 HOU     1317   263
##  3 gonzaju03 TEX     1224   339
##  4 rodriiv01 TEX     1169   144
##  5 greerru01 TEX      809   103
##  6 palmera01 TEX      790   146
##  7 caminke01 HOU      772    74
##  8 palmede01 TEX      758   154
##  9 gonzalu01 HOU      745    62
## 10 bellde01  HOU      683    74
## # ... with 401 more rows
…
hitters %>% 
  filter(yearID %in% min_year:max_year) %>% 
  filter(teamID %in% !!enquo(teamID)) %>% 
  select(playerID, teamID, category) %>% 
  group_by(playerID, teamID) %>% 
  summarise_all(.funs = sum) %>% 
  arrange_at(desc({{ category }}))

## Note: Using an external vector in selections is ambiguous.
## i Use `all_of(category)` instead of `category` to silence this message.
## i See <https://tidyselect.r-lib.org/reference/faq-external-vector.html>.
## This message is displayed once per session.

## # A tibble: 411 x 4
## # Groups:   playerID [398]
##    playerID  teamID     G    HR
##    <chr>     <chr>  <dbl> <dbl>
##  1 campbmi01 TEX        1     0
##  2 davisdo01 TEX        1     0
##  3 fernasi01 HOU        1     0
##  4 grzanmi01 HOU        1     0
##  5 jacksch03 TEX        1     0
##  6 leeco01   TEX        1     0
##  7 manonra01 TEX        1     0
##  8 sassero01 TEX        1     0
##  9 armstja01 TEX        2     0
## 10 balbost01 TEX        2     0
## # ... with 401 more rows
…
baseball_fun()

## # A tibble: 411 x 4
## # Groups:   playerID [398]
##    playerID  teamID     G    HR
##    <chr>     <chr>  <dbl> <dbl>
##  1 campbmi01 TEX        1     0
##  2 davisdo01 TEX        1     0
##  3 fernasi01 HOU        1     0
##  4 grzanmi01 HOU        1     0
##  5 jacksch03 TEX        1     0
##  6 leeco01   TEX        1     0
##  7 manonra01 TEX        1     0
##  8 sassero01 TEX        1     0
##  9 armstja01 TEX        2     0
## 10 balbost01 TEX        2     0
## # ... with 401 more rows
…
baseball_fun(min_year = 2000,max_year = 2009, teamID = "NYA") %>% 
  arrange(desc(HR))

## # A tibble: 247 x 4
## # Groups:   playerID [247]
##    playerID  teamID     G    HR
##    <chr>     <chr>  <dbl> <dbl>
##  1 rodrial01 NYA      891   238
##  2 giambja01 NYA      897   209
##  3 posadjo01 NYA     1302   208
##  4 jeterde01 NYA     1500   161
##  5 matsuhi01 NYA      916   140
##  6 willibe02 NYA      980   136
##  7 soriaal01 NYA      492    97
##  8 canoro01  NYA      734    87
##  9 damonjo01 NYA      576    77
## 10 sheffga01 NYA      347    76
## # ... with 237 more rows

4.6 PURRR

library(purrr)

map(c("TEX","NYA"), ~baseball_fun(teamID = .)) %>% 
  map(~arrange(.x))

## [[1]]
## # A tibble: 219 x 4
## # Groups:   playerID [219]
##    playerID  teamID     G    HR
##    <chr>     <chr>  <dbl> <dbl>
##  1 campbmi01 TEX        1     0
##  2 davisdo01 TEX        1     0
##  3 jacksch03 TEX        1     0
##  4 leeco01   TEX        1     0
##  5 manonra01 TEX        1     0
##  6 sassero01 TEX        1     0
##  7 armstja01 TEX        2     0
##  8 balbost01 TEX        2     0
##  9 brumldu01 TEX        2     0
## 10 caprani01 TEX        2     0
## # ... with 209 more rows
## 
## [[2]]
## # A tibble: 184 x 4
## # Groups:   playerID [184]
##    playerID  teamID     G    HR
##    <chr>     <chr>  <dbl> <dbl>
##  1 lukema01  NYA        1     0
##  2 judenje01 NYA        2     0
##  3 ojedabo01 NYA        2     0
##  4 riosda01  NYA        2     0
##  5 whitewa02 NYA        2     0
##  6 bruskji01 NYA        3     0
##  7 chapida01 NYA        3     0
##  8 harrigr01 NYA        3     0
##  9 honeyri01 NYA        3     0
## 10 jerzemi01 NYA        3     0
## # ... with 174 more rows
