5 Data Modeling | Intermediate R
…
hofdata %>%  count(inducted)

## # A tibble: 1 x 2
##   inducted     n
##   <chr>    <int>
## 1 Y          317

retiredyear = 
data %>% 
  group_by(player_id) %>% 
  summarise(lastyear = max(year_id))
retiredyear

## # A tibble: 18,915 x 2
##    player_id lastyear
##    <chr>        <dbl>
##  1 aardsda01     2015
##  2 aaronha01     1976
##  3 aaronto01     1971
##  4 aasedo01      1990
##  5 abadan01      2006
##  6 abadfe01      2016
##  7 abadijo01     1875
##  8 abbated01     1910
##  9 abbeybe01     1896
## 10 abbeych01     1897
## # ... with 18,905 more rows
…
hof

## # A tibble: 1,565 x 20
##    player_id     g    ab     r     h   x2b   x3b    hr   rbi    sb    cs    bb    so   ibb   hbp    sh    sf  gidp lastyear inducted
##    <chr>     <dbl> <dbl> <dbl> <dbl> <dbl> <dbl> <dbl> <dbl> <dbl> <dbl> <dbl> <dbl> <dbl> <dbl> <dbl> <dbl> <dbl>    <dbl> <fct>   
##  1 aaronha01  3298 12364  2174  3771   624    98   755  2297   240    73  1402  1383   293    32    21   121   328     1976 1       
##  2 abreubo01  2425  8480  1453  2470   574    59   288  1363   400   128  1476  1840   115    33     7    85   165     2014 0       
##  3 adairje01  1165  4019   378  1022   163    19    57   366    29    29   208   499    31    17    41    30   149     1970 0       
##  4 adamsbo03  1281  4019   591  1082   188    49    37   303    67    30   414   447     1    17    78     5    62     1959 0       
##  5 adamssp01  1424  5557   844  1588   249    48     9   394   154    50   453   223     0    28   136     0    14     1934 0       
##  6 adcocjo01  1959  6606   823  1832   295    35   336  1122    20    25   594  1059    55    17    52    35   223     1966 0       
##  7 ageeto01   1129  3912   558   999   170    27   130   433   167    81   342   918    26    34    21    15    99     1973 0       
##  8 ainsmed01  1078  3048   299   707   108    54    22   317    86    16   263   315     0    12    99     0     0     1924 0       
##  9 alfoned01  1506  5385   777  1532   282    18   146   744    53    17   596   617    22    41    31    55   110     2006 0       
## 10 alicelu01  1341  3971   551  1031   189    53    47   422    81    50   500   624    25    48    49    45    74     2002 0       
## # ... with 1,555 more rows
…
## # A tibble: 2 x 2
##   inducted     n
##   <fct>    <int>
## 1 0         1229
## 2 1          168

hofmod =
hof %>% 
  filter(lastyear <= 2012) %>% 
  select(-lastyear)
hofmod

## # A tibble: 1,397 x 19
##    player_id     g    ab     r     h   x2b   x3b    hr   rbi    sb    cs    bb    so   ibb   hbp    sh    sf  gidp inducted
##    <chr>     <dbl> <dbl> <dbl> <dbl> <dbl> <dbl> <dbl> <dbl> <dbl> <dbl> <dbl> <dbl> <dbl> <dbl> <dbl> <dbl> <dbl> <fct>   
##  1 aaronha01  3298 12364  2174  3771   624    98   755  2297   240    73  1402  1383   293    32    21   121   328 1       
##  2 adairje01  1165  4019   378  1022   163    19    57   366    29    29   208   499    31    17    41    30   149 0       
##  3 adamsbo03  1281  4019   591  1082   188    49    37   303    67    30   414   447     1    17    78     5    62 0       
##  4 adamssp01  1424  5557   844  1588   249    48     9   394   154    50   453   223     0    28   136     0    14 0       
##  5 adcocjo01  1959  6606   823  1832   295    35   336  1122    20    25   594  1059    55    17    52    35   223 0       
##  6 ageeto01   1129  3912   558   999   170    27   130   433   167    81   342   918    26    34    21    15    99 0       
##  7 ainsmed01  1078  3048   299   707   108    54    22   317    86    16   263   315     0    12    99     0     0 0       
##  8 alfoned01  1506  5385   777  1532   282    18   146   744    53    17   596   617    22    41    31    55   110 0       
##  9 alicelu01  1341  3971   551  1031   189    53    47   422    81    50   500   624    25    48    49    45    74 0       
## 10 allenbe01  1139  3404   357   815   140    21    73   351    13    16   370   424    52     8    24    17    60 0       
## # ... with 1,387 more rows

hoftest = 
hof %>% 
  filter(lastyear > 2012) %>% 
  select(-lastyear,-inducted)
hoftest

## # A tibble: 168 x 18
##    player_id     g    ab     r     h   x2b   x3b    hr   rbi    sb    cs    bb    so   ibb   hbp    sh    sf  gidp
##    <chr>     <dbl> <dbl> <dbl> <dbl> <dbl> <dbl> <dbl> <dbl> <dbl> <dbl> <dbl> <dbl> <dbl> <dbl> <dbl> <dbl> <dbl>
##  1 abreubo01  2425  8480  1453  2470   574    59   288  1363   400   128  1476  1840   115    33     7    85   165
##  2 andruel01  1221  4625   648  1266   207    37    35   436   241    83   408   684     4    34    99    36   114
##  3 aybarer01  1346  4842   606  1324   241    45    51   451   144    58   257   613    16    48    72    37   102
##  4 barmecl01  1186  3805   434   932   208    17    89   415    43    30   216   734    32    60    60    26    54
##  5 bautijo02  1519  5139   878  1311   267    17   308   862    60    26   881  1113    53    66    23    50   152
##  6 bayja01    1278  4505   737  1200   240    30   222   754    95    17   636  1216    38    56     7    54    84
##  7 beltrad01  2720 10295  1428  2942   591    36   445  1571   119    42   775  1584   108    87    14    89   259
##  8 beltrca01  2457  9301  1522  2617   536    78   421  1536   312    49  1051  1693   101    48    18   104   194
##  9 berkmla01  1879  6491  1146  1905   422    30   366  1234    86    48  1201  1300   160    66     1    54   147
## 10 betanyu01  1156  4052   437  1057   218    29    80   457    30    30   143   435    10    10    34    39   110
## # ... with 158 more rows
…
5.6 Apply Preprocessing

hof_training_preprocessed_tbl = 
  preprocessing_recipe %>% 
  bake(training(hof_initial_split))

hof_training_preprocessed_tbl

## # A tibble: 1,118 x 18
##         g      ab       r       h     x2b       x3b      hr    rbi     sb     cs     bb       so     ibb    hbp     sh      sf   gidp inducted
##     <dbl>   <dbl>   <dbl>   <dbl>   <dbl>     <dbl>   <dbl>  <dbl>  <dbl>  <dbl>  <dbl>    <dbl>   <dbl>  <dbl>  <dbl>   <dbl>  <dbl> <fct>   
##  1  3.96   3.72    3.93    3.84    3.27    1.08      5.51    4.55   0.786  0.783  2.89   1.93     6.08   -0.166 -0.660  3.26    3.47  1       
##  2 -0.873 -0.702  -1.08   -0.770  -0.790  -0.861    -0.556  -0.939 -0.701 -0.323 -1.11  -0.290   -0.0466 -0.621 -0.365  0.0599  0.909 0       
##  3 -0.610 -0.702  -0.489  -0.669  -0.570  -0.122    -0.730  -1.12  -0.433 -0.298 -0.421 -0.421   -0.748  -0.621  0.182 -0.818  -0.336 0       
##  4 -0.286  0.113   0.217   0.179  -0.0318 -0.147    -0.974  -0.859  0.180  0.205 -0.290 -0.984   -0.772  -0.288  1.04  -0.994  -1.02  0       
##  5  0.925  0.670   0.158   0.589   0.374  -0.467     1.87    1.21  -0.764 -0.423  0.182  1.12     0.515  -0.621 -0.202  0.235   1.97  0       
##  6 -0.954 -0.759  -0.582  -0.809  -0.728  -0.664     0.0781 -0.748  0.272  0.984 -0.662  0.764   -0.164  -0.106 -0.660 -0.467   0.194 0       
##  7 -1.07  -1.22   -1.30   -1.30   -1.27    0.000594 -0.861  -1.08  -0.299 -0.649 -0.927 -0.753   -0.772  -0.772  0.492 -0.994  -1.22  0       
##  8 -0.101  0.0222  0.0300  0.0853  0.259  -0.885     0.217   0.136 -0.532 -0.624  0.189  0.00688 -0.257   0.106 -0.513  0.938   0.351 0       
##  9 -0.474 -0.728  -0.601  -0.755  -0.561  -0.0240   -0.643  -0.780 -0.334  0.205 -0.133  0.0245  -0.187   0.319 -0.247  0.587  -0.164 0       
## 10 -0.932 -1.03   -1.14   -1.12   -0.993  -0.812    -0.417  -0.981 -0.813 -0.649 -0.568 -0.478    0.445  -0.894 -0.616 -0.397  -0.364 0       
## # ... with 1,108 more rows
…
forest_params = parameters(mtry(c(2,6)), trees(), min_n())
forest_params

## Collection of 3 parameters for tuning
## 
##     id parameter type object class
##   mtry           mtry    nparam[+]
##  trees          trees    nparam[+]
##  min_n          min_n    nparam[+]

set.seed(as.numeric(as.factor("beatnavy")))
forest_grid = grid_max_entropy(forest_params, size = 30)
forest_grid

## # A tibble: 30 x 3
##     mtry trees min_n
##    <int> <int> <int>
##  1     2  1264     5
##  2     4  1113    28
##  3     5   622    11
##  4     2    28     6
##  5     3    24    19
##  6     3  1479    36
##  7     4  1404    13
##  8     5    33    40
##  9     6   115    15
## 10     6   686     3
## # ... with 20 more rows
…
5.14 Run Best Model on All Data

model_final = forest_stage_2_model %>%
    fit(inducted ~ . , data = bake(preprocessing_recipe, new_data = hofmod))

5.15 Run Model on New Data

hoftest %>%
  bake(preprocessing_recipe, new_data = .) %>%
  predict(model_final, new_data = .) %>% 
  bind_cols(hoftest %>% select(player_id)) %>% 
  arrange(desc(.pred_class))

## # A tibble: 168 x 2
##    .pred_class player_id
##    <fct>       <chr>    
##  1 1           beltrad01
##  2 1           beltrca01
##  3 1           jeterde01
##  4 1           pujolal01
##  5 1           rodrial01
##  6 1           rolliji01
##  7 1           suzukic01
##  8 0           abreubo01
##  9 0           andruel01
## 10 0           aybarer01
## # ... with 158 more rows
…
